SingleCycle_CA/SingleCycle_CA.sim/sim_1/behav/xsim/tb_TaskB.vcd
$date
   Wed Apr 22 12:42:34 2026
$end
$version
  2020.1
$end
$timescale
  1ps
$end
$scope module tb_TaskB $end
$var reg 1 ! clk $end
$var reg 1 " rst $end
$var reg 16 # switches [15:0] $end
$var wire 16 $ leds [15:0] $end
$var wire 7 % seg [6:0] $end
$var wire 4 & an [3:0] $end
$scope module dut $end
$var wire 1 ' clk $end
$var wire 1 ( rst $end
$var wire 16 ) switches [15:0] $end
$var wire 16 $ leds [15:0] $end
$var wire 7 % seg [6:0] $end
$var wire 4 & an [3:0] $end
$var reg 4 * clk_div [3:0] $end
$var reg 1 + clk_10M $end
$var wire 32 , PC [31:0] $end
$var wire 32 - PCNext [31:0] $end
$var wire 32 . PCPlus4 [31:0] $end
$var wire 32 / instruction [31:0] $end
$var wire 1 0 Branch $end
$var wire 1 1 MemRead $end
$var wire 1 2 MemtoReg $end
$var wire 1 3 MemWrite $end
$var wire 1 4 ALUSrc $end
$var wire 1 5 RegWrite $end
$var wire 1 6 Jump $end
$var wire 1 7 Jalr $end
$var wire 2 8 ALUOp [1:0] $end
$var wire 4 9 ALU_Ctrl_Signal [3:0] $end
$var wire 1 : PCSrc $end
$var wire 32 ; readData1 [31:0] $end
$var wire 32 < readData2 [31:0] $end
$var wire 32 = WriteData [31:0] $end
$var wire 32 > imm [31:0] $end
$var wire 32 ? ALU_B [31:0] $end
$var wire 32 @ ALUResult [31:0] $end
$var wire 1 A Zero $end
$var wire 1 B Less $end
$var wire 32 C mem_read_data [31:0] $end
$var wire 32 D final_read_data [31:0] $end
$var wire 32 E BranchTarget [31:0] $end
$var wire 1 F is_BNE $end
$var wire 1 G is_BLT $end
$var wire 32 H PC_JumpBranch [31:0] $end
$var wire 16 I encoded_switches [15:0] $end
$var wire 1 J LEDWrite $end
$var reg 16 K led_reg [15:0] $end
$scope module u_PC $end
$var wire 1 L clk $end
$var wire 1 ( rst $end
$var wire 32 - PCNext [31:0] $end
$var reg 32 M PC [31:0] $end
$upscope $end
$scope module u_PcAdd4 $end
$var wire 32 , PC [31:0] $end
$var wire 32 . PCPlus4 [31:0] $end
$upscope $end
$scope module u_InstMem $end
$var wire 32 , instAddress [31:0] $end
$var wire 32 / instruction [31:0] $end
$upscope $end
$scope module u_MainControl $end
$var wire 7 N opcode [6:0] $end
$var reg 1 O Branch $end
$var reg 1 P MemRead $end
$var reg 1 Q MemtoReg $end
$var reg 2 R ALUOp [1:0] $end
$var reg 1 S MemWrite $end
$var reg 1 T ALUSrc $end
$var reg 1 U RegWrite $end
$var reg 1 V Jump $end
$var reg 1 W Jalr $end
$upscope $end
$scope module u_RegFile $end
$var wire 1 X clk $end
$var wire 1 ( rst $end
$var wire 1 5 WriteEnable $end
$var wire 5 Y rs1 [4:0] $end
$var wire 5 Z rs2 [4:0] $end
$var wire 5 [ rd [4:0] $end
$var wire 32 = WriteData [31:0] $end
$var wire 32 ; readData1 [31:0] $end
$var wire 32 < readData2 [31:0] $end
$var integer 32 \ i $end
$upscope $end
$scope module u_ImmGen $end
$var wire 32 / instruction [31:0] $end
$var reg 32 ] imm [31:0] $end
$var wire 7 ^ opcode [6:0] $end
$upscope $end
$scope module u_ALUControl $end
$var wire 2 8 ALUOp [1:0] $end
$var wire 3 _ funct3 [2:0] $end
$var wire 1 ` funct7_5 $end
$var reg 4 a ALUControl [3:0] $end
$upscope $end
$scope module u_ALUSrcMux $end
$var wire 32 < in0 [31:0] $end
$var wire 32 > in1 [31:0] $end
$var wire 1 4 sel $end
$var wire 32 ? out [31:0] $end
$upscope $end
$scope module u_ALU $end
$var wire 32 ; A [31:0] $end
$var wire 32 ? B [31:0] $end
$var wire 4 9 ALUControl [3:0] $end
$var reg 32 b ALUResult [31:0] $end
$var wire 1 A Zero $end
$var wire 1 B Less $end
$var wire 33 c carry [32:0] $end
$var wire 32 d slice_result [31:0] $end
$scope module alu_array[0].u_1b $end
$var wire 1 e a $end
$var wire 1 f b $end
$var wire 1 g cin $end
$var wire 4 9 ALUControl [3:0] $end
$var reg 1 h result $end
$var wire 1 i cout $end
$var wire 1 j b_inv $end
$var wire 1 k sum $end
$upscope $end
$scope module alu_array[1].u_1b $end
$var wire 1 l a $end
$var wire 1 m b $end
$var wire 1 i cin $end
$var wire 4 9 ALUControl [3:0] $end
$var reg 1 n result $end
$var wire 1 o cout $end
$var wire 1 p b_inv $end
$var wire 1 q sum $end
$upscope $end
$scope module alu_array[2].u_1b $end
$var wire 1 r a $end
$var wire 1 s b $end
$var wire 1 o cin $end
$var wire 4 9 ALUControl [3:0] $end
$var reg 1 t result $end
$var wire 1 u cout $end
$var wire 1 v b_inv $end
$var wire 1 w sum $end
$upscope $end
$scope module alu_array[3].u_1b $end
$var wire 1 x a $end
$var wire 1 y b $end
$var wire 1 u cin $end
$var wire 4 9 ALUControl [3:0] $end
$var reg 1 z result $end
$var wire 1 { cout $end
$var wire 1 | b_inv $end
$var wire 1 } sum $end
$upscope $end
$scope module alu_array[4].u_1b $end
$var wire 1 ~ a $end
$var wire 1 !! b $end
$var wire 1 { cin $end
$var wire 4 9 ALUControl [3:0] $end
$var reg 1 "! result $end
$var wire 1 #! cout $end
$var wire 1 $! b_inv $end
$var wire 1 %! sum $end
$upscope $end
$scope module alu_array[5].u_1b $end
$var wire 1 &! a $end
$var wire 1 '! b $end
$var wire 1 #! cin $end
$var wire 4 9 ALUControl [3:0] $end
$var reg 1 (! result $end
$var wire 1 )! cout $end
$var wire 1 *! b_inv $end
$var wire 1 +! sum $end
$upscope $end
$scope module alu_array[6].u_1b $end
$var wire 1 ,! a $end
$var wire 1 -! b $end
$var wire 1 )! cin $end
$var wire 4 9 ALUControl [3:0] $end
$var reg 1 .! result $end
$var wire 1 /! cout $end
$var wire 1 0! b_inv $end
$var wire 1 1! sum $end
$upscope $end
$scope module alu_array[7].u_1b $end
$var wire 1 2! a $end
$var wire 1 3! b $end
$var wire 1 /! cin $end
$var wire 4 9 ALUControl [3:0] $end
$var reg 1 4! result $end
$var wire 1 5! cout $end
$var wire 1 6! b_inv $end
$var wire 1 7! sum $end
$upscope $end
$scope module alu_array[8].u_1b $end
$var wire 1 8! a $end
$var wire 1 9! b $end
$var wire 1 5! cin $end
$var wire 4 9 ALUControl [3:0] $end
$var reg 1 :! result $end
$var wire 1 ;! cout $end
$var wire 1 <! b_inv $end
$var wire 1 =! sum $end
$upscope $end
$scope module alu_array[9].u_1b $end
$var wire 1 >! a $end
$var wire 1 ?! b $end
$var wire 1 ;! cin $end
$var wire 4 9 ALUControl [3:0] $end
$var reg 1 @! result $end
$var wire 1 A! cout $end
$var wire 1 B! b_inv $end
$var wire 1 C! sum $end
$upscope $end
$scope module alu_array[10].u_1b $end
$var wire 1 D! a $end
$var wire 1 E! b $end
$var wire 1 A! cin $end
$var wire 4 9 ALUControl [3:0] $end
$var reg 1 F! result $end
$var wire 1 G! cout $end
$var wire 1 H! b_inv $end
$var wire 1 I! sum $end
$upscope $end
$scope module alu_array[11].u_1b $end
$var wire 1 J! a $end
$var wire 1 K! b $end
$var wire 1 G! cin $end
$var wire 4 9 ALUControl [3:0] $end
$var reg 1 L! result $end
$var wire 1 M! cout $end
$var wire 1 N! b_inv $end
$var wire 1 O! sum $end
$upscope $end
$scope module alu_array[12].u_1b $end
$var wire 1 P! a $end
$var wire 1 Q! b $end
$var wire 1 M! cin $end
$var wire 4 9 ALUControl [3:0] $end
$var reg 1 R! result $end
$var wire 1 S! cout $end
$var wire 1 T! b_inv $end
$var wire 1 U! sum $end
$upscope $end
$scope module alu_array[13].u_1b $end
$var wire 1 V! a $end
$var wire 1 W! b $end
$var wire 1 S! cin $end
$var wire 4 9 ALUControl [3:0] $end
$var reg 1 X! result $end
$var wire 1 Y! cout $end
$var wire 1 Z! b_inv $end
$var wire 1 [! sum $end
$upscope $end
$scope module alu_array[14].u_1b $end
$var wire 1 \! a $end
$var wire 1 ]! b $end
$var wire 1 Y! cin $end
$var wire 4 9 ALUControl [3:0] $end
$var reg 1 ^! result $end
$var wire 1 _! cout $end
$var wire 1 `! b_inv $end
$var wire 1 a! sum $end
$upscope $end
$scope module alu_array[15].u_1b $end
$var wire 1 b! a $end
$var wire 1 c! b $end
$var wire 1 _! cin $end
$var wire 4 9 ALUControl [3:0] $end
$var reg 1 d! result $end
$var wire 1 e! cout $end
$var wire 1 f! b_inv $end
$var wire 1 g! sum $end
$upscope $end
$scope module alu_array[16].u_1b $end
$var wire 1 h! a $end
$var wire 1 i! b $end
$var wire 1 e! cin $end
$var wire 4 9 ALUControl [3:0] $end
$var reg 1 j! result $end
$var wire 1 k! cout $end
$var wire 1 l! b_inv $end
$var wire 1 m! sum $end
$upscope $end
$scope module alu_array[17].u_1b $end
$var wire 1 n! a $end
$var wire 1 o! b $end
$var wire 1 k! cin $end
$var wire 4 9 ALUControl [3:0] $end
$var reg 1 p! result $end
$var wire 1 q! cout $end
$var wire 1 r! b_inv $end
$var wire 1 s! sum $end
$upscope $end
$scope module alu_array[18].u_1b $end
$var wire 1 t! a $end
$var wire 1 u! b $end
$var wire 1 q! cin $end
$var wire 4 9 ALUControl [3:0] $end
$var reg 1 v! result $end
$var wire 1 w! cout $end
$var wire 1 x! b_inv $end
$var wire 1 y! sum $end
$upscope $end
$scope module alu_array[19].u_1b $end
$var wire 1 z! a $end
$var wire 1 {! b $end
$var wire 1 w! cin $end
$var wire 4 9 ALUControl [3:0] $end
$var reg 1 |! result $end
$var wire 1 }! cout $end
$var wire 1 ~! b_inv $end
$var wire 1 !" sum $end
$upscope $end
$scope module alu_array[20].u_1b $end
$var wire 1 "" a $end
$var wire 1 #" b $end
$var wire 1 }! cin $end
$var wire 4 9 ALUControl [3:0] $end
$var reg 1 $" result $end
$var wire 1 %" cout $end
$var wire 1 &" b_inv $end
$var wire 1 '" sum $end
$upscope $end
$scope module alu_array[21].u_1b $end
$var wire 1 (" a $end
$var wire 1 )" b $end
$var wire 1 %" cin $end
$var wire 4 9 ALUControl [3:0] $end
$var reg 1 *" result $end
$var wire 1 +" cout $end
$var wire 1 ," b_inv $end
$var wire 1 -" sum $end
$upscope $end
$scope module alu_array[22].u_1b $end
$var wire 1 ." a $end
$var wire 1 /" b $end
$var wire 1 +" cin $end
$var wire 4 9 ALUControl [3:0] $end
$var reg 1 0" result $end
$var wire 1 1" cout $end
$var wire 1 2" b_inv $end
$var wire 1 3" sum $end
$upscope $end
$scope module alu_array[23].u_1b $end
$var wire 1 4" a $end
$var wire 1 5" b $end
$var wire 1 1" cin $end
$var wire 4 9 ALUControl [3:0] $end
$var reg 1 6" result $end
$var wire 1 7" cout $end
$var wire 1 8" b_inv $end
$var wire 1 9" sum $end
$upscope $end
$scope module alu_array[24].u_1b $end
$var wire 1 :" a $end
$var wire 1 ;" b $end
$var wire 1 7" cin $end
$var wire 4 9 ALUControl [3:0] $end
$var reg 1 <" result $end
$var wire 1 =" cout $end
$var wire 1 >" b_inv $end
$var wire 1 ?" sum $end
$upscope $end
$scope module alu_array[25].u_1b $end
$var wire 1 @" a $end
$var wire 1 A" b $end
$var wire 1 =" cin $end
$var wire 4 9 ALUControl [3:0] $end
$var reg 1 B" result $end
$var wire 1 C" cout $end
$var wire 1 D" b_inv $end
$var wire 1 E" sum $end
$upscope $end
$scope module alu_array[26].u_1b $end
$var wire 1 F" a $end
$var wire 1 G" b $end
$var wire 1 C" cin $end
$var wire 4 9 ALUControl [3:0] $end
$var reg 1 H" result $end
$var wire 1 I" cout $end
$var wire 1 J" b_inv $end
$var wire 1 K" sum $end
$upscope $end
$scope module alu_array[27].u_1b $end
$var wire 1 L" a $end
$var wire 1 M" b $end
$var wire 1 I" cin $end
$var wire 4 9 ALUControl [3:0] $end
$var reg 1 N" result $end
$var wire 1 O" cout $end
$var wire 1 P" b_inv $end
$var wire 1 Q" sum $end
$upscope $end
$scope module alu_array[28].u_1b $end
$var wire 1 R" a $end
$var wire 1 S" b $end
$var wire 1 O" cin $end
$var wire 4 9 ALUControl [3:0] $end
$var reg 1 T" result $end
$var wire 1 U" cout $end
$var wire 1 V" b_inv $end
$var wire 1 W" sum $end
$upscope $end
$scope module alu_array[29].u_1b $end
$var wire 1 X" a $end
$var wire 1 Y" b $end
$var wire 1 U" cin $end
$var wire 4 9 ALUControl [3:0] $end
$var reg 1 Z" result $end
$var wire 1 [" cout $end
$var wire 1 \" b_inv $end
$var wire 1 ]" sum $end
$upscope $end
$scope module alu_array[30].u_1b $end
$var wire 1 ^" a $end
$var wire 1 _" b $end
$var wire 1 [" cin $end
$var wire 4 9 ALUControl [3:0] $end
$var reg 1 `" result $end
$var wire 1 a" cout $end
$var wire 1 b" b_inv $end
$var wire 1 c" sum $end
$upscope $end
$scope module alu_array[31].u_1b $end
$var wire 1 d" a $end
$var wire 1 e" b $end
$var wire 1 a" cin $end
$var wire 4 9 ALUControl [3:0] $end
$var reg 1 f" result $end
$var wire 1 g" cout $end
$var wire 1 h" b_inv $end
$var wire 1 i" sum $end
$upscope $end
$upscope $end
$scope module u_BranchAdder $end
$var wire 32 , PC [31:0] $end
$var wire 32 > imm [31:0] $end
$var wire 32 E BranchTarget [31:0] $end
$upscope $end
$scope module u_DataMem $end
$var wire 1 j" clk $end
$var wire 1 k" MemWrite $end
$var wire 1 l" MemRead $end
$var wire 32 @ address [31:0] $end
$var wire 32 < write_data [31:0] $end
$var reg 32 m" read_data [31:0] $end
$upscope $end
$scope module u_Seg7 $end
$var wire 1 ' clk $end
$var wire 1 ( rst $end
$var wire 16 n" val [15:0] $end
$var reg 7 o" seg [6:0] $end
$var reg 4 p" an [3:0] $end
$var reg 18 q" refresh_counter [17:0] $end
$var wire 2 r" led_activation [1:0] $end
$var wire 4 s" hundreds [3:0] $end
$var wire 4 t" tens [3:0] $end
$var wire 4 u" ones [3:0] $end
$var reg 4 v" current_digit [3:0] $end
$upscope $end
$upscope $end
$scope task wait_for_led $end
$var reg 16 w" expected [15:0] $end
$var reg 32 x" timeout_cycles [31:0] $end
$var integer 32 y" i $end
$upscope $end
$upscope $end
$enddefinitions $end
#0
$dumpvars
0!
x!!
x!"
1"
x"!
x""
b0 #
x#!
x#"
b0 $
x$!
x$"
b1000000 %
x%!
x%"
b111 &
x&!
x&"
0'
x'!
x'"
1(
x(!
x("
b0 )
x)!
x)"
b0 *
x*!
x*"
0+
x+!
x+"
bx ,
x,!
x,"
bx -
x-!
x-"
bx .
x.!
x."
bx /
x/!
x/"
x0
x0!
x0"
x1
x1!
x1"
x2
x2!
x2"
x3
x3!
x3"
x4
x4!
x4"
x5
x5!
x5"
x6
x6!
x6"
x7
x7!
x7"
bx 8
x8!
x8"
bx 9
x9!
x9"
x:
x:!
x:"
bx ;
x;!
x;"
bx <
x<!
x<"
bx =
x=!
x="
bx >
x>!
x>"
bx ?
x?!
x?"
bx @
x@!
x@"
xA
xA!
xA"
xB
xB!
xB"
bx C
xC!
xC"
bx D
xD!
xD"
bx E
xE!
xE"
xF
xF!
xF"
xG
xG!
xG"
bx H
xH!
xH"
b0 I
xI!
xI"
xJ
xJ!
xJ"
b0 K
xK!
xK"
0L
xL!
xL"
bx M
xM!
xM"
bx N
xN!
xN"
xO
xO!
xO"
xP
xP!
xP"
xQ
xQ!
xQ"
bx R
xR!
xR"
xS
xS!
xS"
xT
xT!
xT"
xU
xU!
xU"
xV
xV!
xV"
xW
xW!
xW"
0X
xX!
xX"
bx Y
xY!
xY"
bx Z
xZ!
xZ"
bx [
x[!
x["
bx \
x\!
x\"
bx ]
x]!
x]"
bx ^
x^!
x^"
bx _
x_!
x_"
x`
x`!
x`"
bx a
xa!
xa"
bx b
xb!
xb"
bx c
xc!
xc"
bx d
xd!
xd"
xe
xe!
xe"
xf
xf!
xf"
xg
xg!
xg"
xh
xh!
xh"
xi
xi!
xi"
xj
xj!
0j"
xk
xk!
xk"
xl
xl!
xl"
xm
xm!
bx m"
xn
xn!
b0 n"
xo
xo!
b1000000 o"
xp
xp!
b111 p"
xq
xq!
b0 q"
xr
xr!
b0 r"
xs
xs!
b0 s"
xt
xt!
b0 t"
xu
xu!
b0 u"
xv
xv!
b0 v"
xw
xw!
bx w"
xx
xx!
bx x"
xy
xy!
bx y"
xz
xz!
x{
x{!
x|
x|!
x}
x}!
x~
x~!
$end
#5000
1!
1'
b1 *
#10000
0!
0'
#15000
1!
1'
b10 *
#20000
0!
0'
#25000
1!
1'
b11 *
#30000
0!
0'
#35000
1!
1'
b100 *
#40000
0!
0'
#45000
1!
0!!
0!"
0"!
0""
0#!
0#"
0$!
0$"
0%!
0%"
0&!
0&"
1'
0'!
0'"
0(!
0("
0)!
0)"
b0 *
0*!
0*"
1+
0+!
0+"
b0 ,
0,!
0,"
b100 -
0-!
0-"
b100 .
0.!
0."
b100000000000000000010010010011 /
0/!
0/"
00
00!
00"
01
01!
01"
02
02!
02"
03
03!
03"
14
04!
04"
15
05!
05"
06
06!
06"
07
07!
07"
b11 8
08!
08"
b0 9
09!
09"
0:
0:!
0:"
b0 ;
0;!
0;"
b0 <
0<!
0<"
b1000000000 =
0=!
0="
b1000000000 >
0>!
0>"
b1000000000 ?
1?!
0?"
b1000000000 @
1@!
0@"
0A
0A!
0A"
0B
1B!
0B"
b0 C
1C!
0C"
b0 D
0D!
0D"
b1000000000 E
0E!
0E"
0F
0F!
0F"
0G
0G!
0G"
b100 H
0H!
0H"
0I!
0I"
0J
0J!
0J"
0K!
0K"
1L
0L!
0L"
b0 M
0M!
0M"
b10011 N
0N!
0N"
0O
0O!
0O"
0P
0P!
0P"
0Q
0Q!
0Q"
b11 R
0R!
0R"
0S
0S!
0S"
1T
0T!
0T"
1U
0U!
0U"
0V
0V!
0V"
0W
0W!
0W"
1X
0X!
0X"
b0 Y
0Y!
0Y"
b0 Z
0Z!
0Z"
b1001 [
0[!
0["
0\!
0\"
b1000000000 ]
0]!
0]"
b10011 ^
0^!
0^"
b0 _
0_!
0_"
0`
0`!
0`"
b0 a
0a!
0a"
b1000000000 b
0b!
0b"
b0 c
0c!
0c"
b1000000000 d
0d!
0d"
0e
0e!
0e"
0f
0f!
0f"
0g
0g!
0g"
0h
0h!
0h"
0i
0i!
0i"
0j
0j!
1j"
0k
0k!
0k"
0l
0l!
0l"
0m
0m!
b0 m"
0n
0n!
0o
0o!
0p
0p!
0q
0q!
0r
0r!
0s
0s!
0t
0t!
0u
0u!
0v
0v!
0w
0w!
0x
0x!
0y
0y!
0z
0z!
0{
0{!
0|
0|!
0}
0}!
0~
0~!
#50000
0!
0'
#55000
1!
1'
b1 *
#60000
0!
0'
#65000
1!
1'
b10 *
#70000
0!
0'
#75000
1!
1'
b11 *
#80000
0!
0'
#85000
1!
1'
b100 *
#90000
0!
0'
#95000
1!
0"
1'
0(
b0 *
0+
0L
0X
0j"
b1 q"
#100000
0!
0'
#105000
1!
1'
b1 *
b10 q"
#110000
0!
0'
#115000
1!
1'
b10 *
b11 q"
#120000
0!
0'
#125000
1!
1'
b11 *
b100 q"
#130000
0!
0'
#135000
1!
1'
b100 *
b101 q"
#140000
0!
0'
#145000
1!
0!!
0""
b10 #
0#"
0&!
1'
0'!
0("
b10 )
0)"
b0 *
1+
b100 ,
0,!
b1000 -
0-!
b1000 .
0."
b110000000000000000100100010011 /
0/"
02!
03!
04"
05"
08!
19!
1:!
0:"
b0 ;
0;!
0;"
b0 <
1<!
b1100000000 =
1=!
b1100000000 >
0>!
b1100000000 ?
1?!
b1100000000 @
0@"
0A
0A"
b1 D
0D!
b1100000100 E
0E!
0F"
0G"
b1000 H
b1 I
0J!
0K!
1L
0L"
b100 M
0M"
b10011 N
0P!
0Q!
0R"
0S"
0V!
0W!
1X
0X"
b0 Y
0Y"
b0 Z
b10010 [
0\!
b1100000000 ]
0]!
0^"
b0 _
0_"
0`
b1100000000 b
0b!
b0 c
0c!
b1100000000 d
0d"
0e
0e"
0f
0h!
0i!
1j"
0l
0l"
0m
b0 m"
0n!
0o!
b110 q"
0r
0s
0t!
0u!
b1010 w"
0x
b1001110001000 x"
0y
b0 y"
0z!
0{!
0~
#150000
0!
0'
#155000
1!
1'
b1 *
b111 q"
b1 y"
#160000
0!
0'
#165000
1!
1'
b10 *
b1000 q"
b10 y"
#170000
0!
0'
#175000
1!
1'
b11 *
b1001 q"
b11 y"
#180000
0!
0'
#185000
1!
1'
b100 *
b1010 q"
b100 y"
#190000
0!
0'
#195000
1!
1'
b0 *
0+
0L
0X
0j"
b1011 q"
b101 y"
#200000
0!
0'
#205000
1!
1'
b1 *
b1100 q"
b110 y"
#210000
0!
0'
#215000
1!
1'
b10 *
b1101 q"
b111 y"
#220000
0!
0'
#225000
1!
1'
b11 *
b1110 q"
b1000 y"
#230000
0!
0'
#235000
1!
1'
b100 *
b1111 q"
b1001 y"
#240000
0!
0'
#245000
1!
0!!
0""
0#"
0&!
1'
0'!
0("
0)"
b0 *
1+
b1000 ,
0,!
b1100 -
0-!
b1100 .
0."
b10010010010100000011 /
0/"
11
12
02!
03!
14
04"
05"
b0 8
18!
09!
1:!
0:"
b1100000000 ;
0;!
0;"
b0 <
0<!
b1 =
1=!
b0 >
1>!
b0 ?
0?!
b1100000000 @
1@!
0@"
0A
0A!
0A"
0B!
1C!
b1 D
0D!
b1000 E
0E!
0F
0F!
0F"
0G
0G!
0G"
b1100 H
0I!
0J!
0K!
1L
0L"
b1000 M
0M"
b11 N
0O
1P
0P!
1Q
0Q!
b0 R
0R"
0S
0S"
1T
1U
0V
0V!
0W
0W!
1X
0X"
b10010 Y
0Y"
b0 Z
b1010 [
0\!
b0 ]
0]!
b11 ^
0^"
b10 _
0_"
0`
b0 a
b1100000000 b
0b!
b0 c
0c!
b1100000000 d
0d"
0e
0e"
0f
0h!
0i!
1j"
0l
0l"
0m
b0 m"
0n!
0o!
b10000 q"
0r
0s
0t!
0u!
0x
0y
b1010 y"
0z!
0{!
0~
#250000
0!
0'
#255000
1!
1'
b1 *
b10001 q"
b1011 y"
#260000
0!
0'
#265000
1!
1'
b10 *
b10010 q"
b1100 y"
#270000
0!
0'
#275000
1!
1'
b11 *
b10011 q"
b1101 y"
#280000
0!
0'
#285000
1!
1'
b100 *
b10100 q"
b1110 y"
#290000
0!
0'
#295000
1!
1'
b0 *
0+
0L
0X
0j"
b10101 q"
b1111 y"
#300000
0!
0'
#305000
1!
1'
b1 *
b10110 q"
b10000 y"
#310000
0!
0'
#315000
1!
1'
b10 *
b10111 q"
b10001 y"
#320000
0!
0'
#325000
1!
1'
b11 *
b11000 q"
b10010 y"
#330000
0!
0'
#335000
1!
1'
b100 *
b11001 q"
b10011 y"
#340000
0!
0'
#345000
1!
0!!
0""
0#"
0&!
1'
0'!
0("
0)"
b0 *
1+
b1100 ,
0,!
b10000 -
0-!
b10000 .
0."
b100000000001010010011 /
0/"
01
02
02!
03!
14
04"
05"
b11 8
08!
09!
0:
0:!
0:"
b0 ;
0;!
0;"
b0 <
b1 =
0=!
b1 >
0>!
b1 ?
0?!
b1 @
0@!
0@"
0A
0A!
0A"
0C!
b0 D
0D!
b1101 E
0E!
0F
0F"
0G
0G"
b10000 H
0J!
0K!
1L
0L"
b1100 M
0M"
b10011 N
0O
0P
0P!
0Q
0Q!
b11 R
0R"
0S
0S"
1T
1U
0V
0V!
0W
0W!
1X
0X"
b0 Y
0Y"
b1 Z
b101 [
0\!
b1 ]
0]!
b10011 ^
0^"
b0 _
0_"
0`
b0 a
b1 b
0b!
b0 c
0c!
b1 d
0d"
0e
0e"
1f
1h
0h!
0i
0i!
1j
1j"
1k
0l
0l"
0m
b0 m"
0n!
0o!
b11010 q"
0r
0s
0t!
0u!
0x
0y
b10100 y"
0z!
0{!
0~
#350000
0!
0'
#355000
1!
1'
b1 *
b11011 q"
b10101 y"
#360000
0!
0'
#365000
1!
1'
b10 *
b11100 q"
b10110 y"
#370000
0!
0'
#375000
1!
1'
b11 *
b11101 q"
b10111 y"
#380000
0!
0'
#385000
1!
1'
b100 *
b11110 q"
b11000 y"
#390000
0!
0'
#395000
1!
1'
b0 *
0+
0L
0X
0j"
b11111 q"
b11001 y"
#400000
0!
0'
#405000
1!
1'
b1 *
b100000 q"
b11010 y"
#410000
0!
0'
#415000
1!
1'
b10 *
b100001 q"
b11011 y"
#420000
0!
0'
#425000
1!
1'
b11 *
b100010 q"
b11100 y"
#430000
0!
0'
#435000
1!
1'
b100 *
b100011 q"
b11101 y"
#440000
0!
0'
#445000
1!
0!!
0!"
0"!
0""
1#!
0#"
1$!
0$"
0%!
1%"
0&!
1&"
1'
0'!
0'"
0(!
0("
1)!
0)"
b0 *
1*!
0*"
1+
0+!
1+"
b10000 ,
0,!
1,"
b10100 -
0-!
0-"
b10100 .
0.!
0."
b10101010001101001100011 /
1/!
0/"
10
10!
00"
01!
11"
02!
12"
03!
03"
04
04!
04"
05
15!
05"
16!
06"
07!
17"
b1 8
08!
18"
b1 9
09!
09"
0:
0:!
0:"
b1 ;
1;!
0;"
b1 <
1<!
0<"
b0 =
0=!
1="
b10100 >
0>!
1>"
b1 ?
0?!
0?"
b0 @
0@!
0@"
1A
1A!
0A"
1B!
0B"
0C!
1C"
0D!
1D"
b100100 E
0E!
0E"
1F
0F!
0F"
0G
1G!
0G"
b10100 H
1H!
0H"
0I!
1I"
0J!
1J"
0K!
0K"
1L
0L!
0L"
b10000 M
1M!
0M"
b1100011 N
1N!
0N"
1O
0O!
1O"
0P
0P!
1P"
0Q
0Q!
0Q"
b1 R
0R!
0R"
0S
1S!
0S"
0T
1T!
0T"
0U
0U!
1U"
0V
0V!
1V"
0W
0W!
0W"
1X
0X!
0X"
b1010 Y
1Y!
0Y"
b101 Z
1Z!
0Z"
b10100 [
0[!
1["
0\!
1\"
b10100 ]
0]!
0]"
b1100011 ^
0^!
0^"
b1 _
1_!
0_"
0`
1`!
0`"
b1 a
0a!
1a"
b0 b
0b!
1b"
b111111111111111111111111111111111 c
0c!
0c"
b0 d
0d!
0d"
1e
1e!
0e"
1f
1f!
0f"
1g
0g!
1g"
0h
0h!
1h"
1i
0i!
0i"
0j
0j!
1j"
0k
1k!
0l
1l!
0m
0m!
b0 m"
0n
0n!
1o
0o!
1p
0p!
0q
1q!
b100100 q"
0r
1r!
0s
0s!
0t
0t!
1u
0u!
1v
0v!
0w
1w!
0x
1x!
0y
0y!
b11110 y"
0z
0z!
1{
0{!
1|
0|!
0}
1}!
0~
1~!
#450000
0!
0'
#455000
1!
1'
b1 *
b100101 q"
b11111 y"
#460000
0!
0'
#465000
1!
1'
b10 *
b100110 q"
b100000 y"
#470000
0!
0'
#475000
1!
1'
b11 *
b100111 q"
b100001 y"
#480000
0!
0'
#485000
1!
1'
b100 *
b101000 q"
b100010 y"
#490000
0!
0'
#495000
1!
1'
b0 *
0+
0L
0X
0j"
b101001 q"
b100011 y"
#500000
0!
0'
#505000
1!
1'
b1 *
b101010 q"
b100100 y"
#510000
0!
0'
#515000
1!
1'
b10 *
b101011 q"
b100101 y"
#520000
0!
0'
#525000
1!
1'
b11 *
b101100 q"
b100110 y"
#530000
0!
0'
#535000
1!
1'
b100 *
b101101 q"
b100111 y"
#540000
0!
0'
#545000
1!
0!!
0!"
0"!
0""
0#!
0#"
0$!
0$"
0%!
0%"
0&!
0&"
1'
0'!
0'"
0(!
0("
0)!
0)"
b0 *
0*!
0*"
1+
0+!
0+"
b10100 ,
0,!
0,"
b11000 -
0-!
0-"
b11000 .
0.!
0."
b10100000000001010010011 /
0/!
0/"
00
00!
00"
01!
01"
02!
02"
03!
03"
14
04!
04"
15
05!
05"
06!
06"
07!
07"
b11 8
08!
08"
b0 9
09!
09"
0:
0:!
0:"
b0 ;
0;!
0;"
0<!
0<"
b101 =
0=!
0="
b101 >
0>!
0>"
b101 ?
0?!
0?"
b101 @
0@!
0@"
0A
0A!
0A"
0B
0B!
0B"
0C!
0C"
b0 D
0D!
0D"
b11001 E
0E!
0E"
0F
0F!
0F"
0G
0G!
0G"
b11000 H
0H!
0H"
0I!
0I"
0J!
0J"
0K!
0K"
1L
0L!
0L"
b10100 M
0M!
0M"
b10011 N
0N!
0N"
0O
0O!
0O"
0P
0P!
0P"
0Q
0Q!
0Q"
b11 R
0R!
0R"
0S
0S!
0S"
1T
0T!
0T"
1U
0U!
0U"
0V
0V!
0V"
0W
0W!
0W"
1X
0X!
0X"
b0 Y
0Y!
0Y"
b101 Z
0Z!
0Z"
b101 [
0[!
0["
0\!
0\"
b101 ]
0]!
0]"
b10011 ^
0^!
0^"
b0 _
0_!
0_"
0`
0`!
0`"
b0 a
0a!
0a"
b101 b
0b!
0b"
b0 c
0c!
0c"
b101 d
0d!
0d"
0e
0e!
0e"
1f
0f!
0f"
0g
0g!
0g"
1h
0h!
0h"
0i
0i!
0i"
1j
0j!
1j"
1k
0k!
0l
0l!
0l"
0m
0m!
b0 m"
0n
0n!
0o
0o!
0p
0p!
0q
0q!
b101110 q"
0r
0r!
1s
0s!
1t
0t!
0u
0u!
1v
0v!
1w
0w!
0x
0x!
0y
0y!
b101000 y"
0z
0z!
0{
0{!
0|
0|!
0}
0}!
0~
0~!
#550000
0!
0'
#555000
1!
1'
b1 *
b101111 q"
b101001 y"
#560000
0!
0'
#565000
1!
1'
b10 *
b110000 q"
b101010 y"
#570000
0!
0'
#575000
1!
1'
b11 *
b110001 q"
b101011 y"
#580000
0!
0'
#585000
1!
1'
b100 *
b110010 q"
b101100 y"
#590000
0!
0'
#595000
1!
1'
b0 *
0+
0L
0X
0j"
b110011 q"
b101101 y"
#600000
0!
0'
#605000
1!
1'
b1 *
b110100 q"
b101110 y"
#610000
0!
0'
#615000
1!
1'
b10 *
b110101 q"
b101111 y"
#620000
0!
0'
